module gitlab.com/test_task_data_collection/data_collector

go 1.19

require (
	github.com/ClickHouse/clickhouse-go v1.5.4
	github.com/ClickHouse/clickhouse-go/v2 v2.6.0
	github.com/fasthttp/router v1.4.16
	github.com/golang-migrate/migrate v3.5.4+incompatible
	github.com/spf13/viper v1.15.0
	github.com/valyala/fasthttp v1.44.0
	go.uber.org/zap v1.24.0
)

require (
	github.com/ClickHouse/ch-go v0.51.2 // indirect
	github.com/andybalholm/brotli v1.0.4 // indirect
	github.com/cloudflare/golz4 v0.0.0-20150217214814-ef862a3cdc58 // indirect
	github.com/fsnotify/fsnotify v1.6.0 // indirect
	github.com/go-faster/city v1.0.1 // indirect
	github.com/go-faster/errors v0.6.1 // indirect
	github.com/google/uuid v1.3.0 // indirect
	github.com/hashicorp/hcl v1.0.0 // indirect
	github.com/klauspost/compress v1.15.14 // indirect
	github.com/magiconair/properties v1.8.7 // indirect
	github.com/mitchellh/mapstructure v1.5.0 // indirect
	github.com/paulmach/orb v0.8.0 // indirect
	github.com/pelletier/go-toml/v2 v2.0.6 // indirect
	github.com/pierrec/lz4/v4 v4.1.17 // indirect
	github.com/pkg/errors v0.9.1 // indirect
	github.com/savsgio/gotils v0.0.0-20220530130905-52f3993e8d6d // indirect
	github.com/segmentio/asm v1.2.0 // indirect
	github.com/shopspring/decimal v1.3.1 // indirect
	github.com/spf13/afero v1.9.3 // indirect
	github.com/spf13/cast v1.5.0 // indirect
	github.com/spf13/jwalterweatherman v1.1.0 // indirect
	github.com/spf13/pflag v1.0.5 // indirect
	github.com/subosito/gotenv v1.4.2 // indirect
	github.com/valyala/bytebufferpool v1.0.0 // indirect
	github.com/valyala/tcplisten v1.0.0 // indirect
	go.opentelemetry.io/otel v1.11.2 // indirect
	go.opentelemetry.io/otel/trace v1.11.2 // indirect
	go.uber.org/atomic v1.10.0 // indirect
	go.uber.org/multierr v1.9.0 // indirect
	golang.org/x/sys v0.3.0 // indirect
	golang.org/x/text v0.5.0 // indirect
	gopkg.in/ini.v1 v1.67.0 // indirect
	gopkg.in/yaml.v3 v3.0.1 // indirect
)
